%YAML 1.1
%TAG !u! tag:unity3d.com,2011:
--- !u!114 &11400000
MonoBehaviour:
  m_ObjectHideFlags: 0
  m_CorrespondingSourceObject: {fileID: 0}
  m_PrefabInstance: {fileID: 0}
  m_PrefabAsset: {fileID: 0}
  m_GameObject: {fileID: 0}
  m_Enabled: 1
  m_EditorHideFlags: 0
  m_Script: {fileID: 11500000, guid: d7fd9488000d3734a9e00ee676215985, type: 3}
  m_Name: Global Volume Profile
  m_EditorClassIdentifier: 
  components:
  - {fileID: 6411765803204949829}
--- !u!114 &6411765803204949829
MonoBehaviour:
  m_ObjectHideFlags: 3
  m_CorrespondingSourceObject: {fileID: 0}
  m_PrefabInstance: {fileID: 0}
  m_PrefabAsset: {fileID: 0}
  m_GameObject: {fileID: 0}
  m_Enabled: 1
  m_EditorHideFlags: 0
  m_Script: {fileID: 11500000, guid: ccf1aba9553839d41ae37dd52e9ebcce, type: 3}
  m_Name: MotionBlur
  m_EditorClassIdentifier: 
  active: 1
  m_AdvancedMode: 0
  mode:
    m_OverrideState: 0
    m_Value: 0
  quality:
    m_OverrideState: 1
    m_Value: 2
  intensity:
    m_OverrideState: 1
    m_Value: 0.1
    min: 0
    max: 1
  clamp:
    m_OverrideState: 1
    m_Value: 0.05
    min: 0
    max: 0.2
